{
  "db": {
    "name": "db",
    "connector": "memory"
  },
  "mysqlDs": {
    "host": "127.0.0.1",
    "port": 3306,
    "database": "dc",
    "password": "",
    "name": "mysqlDs",
    "user": "root",
    "connector": "mysql"
  }
}
