{
  "db": {
    "name": "db",
    "connector": "memory"
  },
  "index": {
    "host": "",
    "port": 0,
    "url": "mongodb://fede75:Vallisneri_1661@ds143330.mlab.com:43330/phaidra",
    "database": "",
    "password": "",
    "name": "index",
    "user": "",
    "connector": "mongodb"
  }
}
